03 Automated Machine Learning with H20 II
…
typeof(predictions)

## [1] "environment"

predictions_tbl <- predictions %>% as_tibble()
predictions_tbl

## # A tibble: 4,763 x 3
##    predict    No   Yes
##    <fct>   <dbl> <dbl>
##  1 Yes     0.214 0.786
##  2 Yes     0.189 0.811
##  3 Yes     0.326 0.674
##  4 Yes     0.248 0.752
##  5 Yes     0.433 0.567
##  6 No      0.862 0.138
##  7 Yes     0.674 0.326
##  8 Yes     0.158 0.842
##  9 Yes     0.385 0.615
## 10 Yes     0.377 0.623
## # … with 4,753 more rows
